lib/libgtkwave/test/files/autocoalesce.vcd
$timescale 1ns $end
$var wire 1 a v [0] $end
$var wire 1 b v [1] $end
$var wire 1 c v [2] $end
$var wire 1 c w [2] $end
$var wire 1 b w [1] $end
$var wire 1 a w [0] $end
$enddefinitions $end

#0
0a
0b
0c

#1
1a

#2
0a
1b

#3
1a

#4
0a
0b
1c

#5
1a

#6
0a
1b

#7
1a