lib/libgtkwave/test/files/timescale_100fs_fractional.vcd
$date
	Thu Jan  1 00:00:00 1970
$end
$version
	fstWriter
$end
$timescale
	0.1ps
$end
$var wire 1 ! bit $end
$enddefinitions $end
#0
$dumpvars
0!
$end
#1
1!
#2
0!
#3
1!
#4
0!
#5
1!
#6
0!
#7
1!
#8
0!
#9
1!
