lib/libgtkwave/test/files/timezero.vcd
$date
	Thu Jan  1 00:00:00 1970
$end
$version
	fstWriter
$end
$timezero
	-2
$end
$timescale
	1ns
$end
$scope module variables $end
$var wire 1 ! bit $end
$var wire 8 " vector $end
$var real 64 # real $end
$var string 0 $ string $end
$upscope $end
$scope module aliases $end
$var wire 1 ! bit_alias $end
$var wire 8 " vector_alias $end
$var real 64 # real_alias $end
$var string 0 $ string_alias $end
$upscope $end
$enddefinitions $end
#0
$dumpvars
sstr-0 $
r0 #
b00000000 "
0!
$end
#1
x!
b00000001 "
r1 #
sstr-1 $
#2
sstr-2 $
r2 #
b00000010 "
z!
#3
1!
b00000011 "
r3 #
sstr-3 $
#4
sstr-4 $
r4 #
b00000100 "
h!
#5
u!
b00000101 "
r5 #
sstr-5 $
#6
sstr-6 $
r6 #
b00000110 "
w!
#7
l!
b00000111 "
r7 #
sstr-7 $
#8
sstr-8 $
r8 #
b00001000 "
-!
